%YAML 1.1
%TAG !u! tag:unity3d.com,2011:
--- !u!221 &22100000
AnimatorOverrideController:
  m_ObjectHideFlags: 0
  m_CorrespondingSourceObject: {fileID: 0}
  m_PrefabInstance: {fileID: 0}
  m_PrefabAsset: {fileID: 0}
  m_Name: CharAnimator1
  m_Controller: {fileID: 9100000, guid: 0e081831dbf41e84b94daf41f843a85e, type: 2}
  m_Clips:
  - m_OriginalClip: {fileID: 7400000, guid: e4c42b694d5fec74a8b503f8717bce2a, type: 2}
    m_OverrideClip: {fileID: 7400000, guid: e4c42b694d5fec74a8b503f8717bce2a, type: 2}
  - m_OriginalClip: {fileID: 7400000, guid: 231c05a864b87c1409e492f2ed797e24, type: 2}
    m_OverrideClip: {fileID: 7400000, guid: 231c05a864b87c1409e492f2ed797e24, type: 2}
  - m_OriginalClip: {fileID: 7400000, guid: fd908ebd976cfb143a5ddd83231c47fc, type: 2}
    m_OverrideClip: {fileID: 7400000, guid: fd908ebd976cfb143a5ddd83231c47fc, type: 2}
